{
    "shipmentTrackingNumber": "2133833122",
    "trackingUrl": "https:\/\/express.api.dhl.com\/mydhlapi\/test\/shipments\/2133833122\/tracking",
    "packages": [
        {
            "referenceNumber": 1,
            "trackingNumber": "JD014600004684416496",
            "trackingUrl": "https:\/\/express.api.dhl.com\/mydhlapi\/test\/shipments\/2133833122\/tracking?pieceTrackingNumber=JD014600004684416496"
        },
        {
            "referenceNumber": 2,
            "trackingNumber": "JD014600004684416497",
            "trackingUrl": "https:\/\/express.api.dhl.com\/mydhlapi\/test\/shipments\/2133833122\/tracking?pieceTrackingNumber=JD014600004684416497"
        }
    ],
    "documents": [
        {
            "imageFormat": "PDF",
            "content": "---- j3 removed before echoing ----",
            "typeCode": "label"
        },
        {
            "imageFormat": "PDF",
            "content": "---- j3 removed before echoing ----",
            "typeCode": "invoice"
        }
    ],
    "shipmentDetails": [
        {
            "serviceHandlingFeatureCodes": [
                "C",
                "PLT"
            ],
            "volumetricWeight": 12.8,
            "billingCode": "IMP",
            "serviceContentCode": "WPX",
            "customerDetails": {
                "shipperDetails": {
                    "postalAddress": {
                        "postalCode": "65594",
                        "cityName": "Runkel",
                        "countryCode": "DE",
                        "addressLine1": "Am Waeldchen 1"
                    },
                    "contactInformation": {
                        "companyName": "ElringKlinger AG",
                        "fullName": "Peter Mueller"
                    }
                },
                "receiverDetails": {
                    "postalAddress": {
                        "postalCode": "CW1 3PL",
                        "cityName": "Crewe",
                        "countryCode": "GB",
                        "addressLine1": "Pyms Lane"
                    },
                    "contactInformation": {
                        "companyName": "Bentley Motors Ltd.",
                        "fullName": "Tom Hutchinson"
                    }
                }
            }
        }
    ],
    "shipmentCharges": [
        {
            "currencyType": "BILLC",
            "priceCurrency": "GBP",
            "price": 30.92,
            "serviceBreakdown": [
                {
                    "name": "EXPRESS WORLDWIDE",
                    "price": 30.24
                },
                {
                    "name": "PAPERLESS TRADE",
                    "price": 0,
                    "typeCode": "WY"
                },
                {
                    "name": "EMERGENCY SITUATION",
                    "price": 0,
                    "typeCode": "CR"
                },
                {
                    "name": "FUEL SURCHARGE",
                    "price": 0.68,
                    "typeCode": "FF"
                }
            ]
        },
        {
            "currencyType": "PULCL",
            "priceCurrency": "GBP",
            "price": 30.92,
            "serviceBreakdown": [
                {
                    "name": "EXPRESS WORLDWIDE",
                    "price": 30.24
                },
                {
                    "name": "FUEL SURCHARGE",
                    "price": 0.68,
                    "typeCode": "FF"
                }
            ]
        },
        {
            "currencyType": "BASEC",
            "priceCurrency": "EUR",
            "price": 35.07,
            "serviceBreakdown": [
                {
                    "name": "EXPRESS WORLDWIDE",
                    "price": 34.3
                },
                {
                    "name": "FUEL SURCHARGE",
                    "price": 0.77,
                    "typeCode": "FF"
                }
            ]
        }
    ]
}
